…
tmp_formal
```

    ## Source: local data frame [1,006 x 2]
    ## Groups: <by row>
    ## 
    ## # A tibble: 1,006 x 2
    ##    mean_QA mean_QB
    ##    <ord>   <ord>  
    ##  1 4       4      
    ##  2 4       3      
    ##  3 4       3      
    ##  4 4       2      
    ##  5 4       3      
    ##  6 4       3      
    ##  7 5       5      
    ##  8 5       4      
    ##  9 4       4      
    ## 10 4       3      
    ## # ... with 996 more rows
…
